{
  "main.js": "/static/js/main.97a17317.chunk.js",
  "main.js.map": "/static/js/main.97a17317.chunk.js.map",
  "static/css/1.4c29ab7e.chunk.css": "/static/css/1.4c29ab7e.chunk.css",
  "static/js/1.3842d004.chunk.js": "/static/js/1.3842d004.chunk.js",
  "static/js/1.3842d004.chunk.js.map": "/static/js/1.3842d004.chunk.js.map",
  "runtime~main.js": "/static/js/runtime~main.229c360f.js",
  "runtime~main.js.map": "/static/js/runtime~main.229c360f.js.map",
  "static/css/1.4c29ab7e.chunk.css.map": "/static/css/1.4c29ab7e.chunk.css.map",
  "index.html": "/index.html",
  "precache-manifest.46bb09aafb0af9f65f8f076dce0c2270.js": "/precache-manifest.46bb09aafb0af9f65f8f076dce0c2270.js",
  "service-worker.js": "/service-worker.js"
}